id;full_name;mobile_no;national_id;birth_date;email;adress
1;bypass;Principal Chile;Books capacitor;2020-07-19;Phyllis.Marks@gmail.com;Computers
2;User-centric Kids;Visionary;Walks;2020-07-19;Gaston76@gmail.com;foreground navigate Madagascar
3;Technician alliance Computers;deposit Sleek;Ergonomic Cotton Pants;2020-07-19;Donnell_Gusikowski21@hotmail.com;Networked Computer Borders
4;invoice Functionality Rand Loti;array;impactful;2020-07-20;Jovany.Connelly93@hotmail.com;Money Market Account
5;neural reboot;bricks-and-clicks Implementation Unbranded;tan New Hampshire;2020-07-20;Mireille.Rowe42@hotmail.com;payment Synergistic Home Loan Account
6;Nevada;orchid;National;2020-07-20;Amelia.Jakubowski55@gmail.com;Bedfordshire Hawaii withdrawal
7;harness Credit Card Account Data;USB;Small Soft Hat Rustic Shirt;2020-07-20;Jamar_Hirthe13@gmail.com;navigating Tuna
8;payment Soap e-tailers;New Hampshire firewall B2C;online Rubber enterprise;2020-07-20;Lorenza.Thompson@yahoo.com;New Mexico maroon
9;strategic Intelligent Metal Bike Arkansas;Qatari Rial;South Dakota back up auxiliary;2020-07-20;Marcia.Hayes59@gmail.com;Cape Jewelery Lempira
10;rich;Ergonomic Granite Car Belize Dollar;system;2020-07-19;Wilbert.Rempel@yahoo.com;multimedia multi-state drive
